\BOOKMARK [1][-]{section.1}{Personal Statement}{}% 1
\BOOKMARK [1][-]{section.2}{Education}{}% 2
\BOOKMARK [1][-]{section.3}{Experience}{}% 3
\BOOKMARK [1][-]{section.4}{Projects}{}% 4
\BOOKMARK [1][-]{section.5}{Skills}{}% 5
